…
output

```
> library(ggplot2)
> library(ggthemes)
> library(multcompView)
> library(dplyr)
> ## 1- load or import your data
> data("chickwts")
> tibble(chickwts)
# A tibble: 71 x 2
   weight feed     
    <dbl> <fct>    
 1    179 horsebean
 2    160 horsebean
 3    136 horsebean
 4    227 horsebean
 5    217 horsebean
 6    168 horsebean
 7    108 horsebean
 8    124 horsebean
 9    143 horsebean
10    140 horsebean
# ... with 61 more rows
…
> as_tibble(x) # tibble adjust its column according to how widely your console window is open'
# A tibble: 53,940 x 10
   carat cut       color clarity depth table price     x     y     z
   <dbl> <ord>     <ord> <ord>   <dbl> <dbl> <int> <dbl> <dbl> <dbl>
 1  0.23 Ideal     E     SI2      61.5    55   326  3.95  3.98  2.43
 2  0.21 Premium   E     SI1      59.8    61   326  3.89  3.84  2.31
 3  0.23 Good      E     VS1      56.9    65   327  4.05  4.07  2.31
 4  0.29 Premium   I     VS2      62.4    58   334  4.2   4.23  2.63
 5  0.31 Good      J     SI2      63.3    58   335  4.34  4.35  2.75
 6  0.24 Very Good J     VVS2     62.8    57   336  3.94  3.96  2.48
 7  0.24 Very Good I     VVS1     62.3    57   336  3.95  3.98  2.47
 8  0.26 Very Good H     SI1      61.9    55   337  4.07  4.11  2.53
 9  0.22 Fair      E     VS2      65.1    61   337  3.87  3.78  2.49
10  0.23 Very Good H     VS1      59.4    61   338  4     4.05  2.39
# ... with 53,930 more rows
…
> as_tibble(x) # tibble adjust its column according to how widely your console window is open'
# A tibble: 53,940 x 10
   carat cut       color clarity depth table price     x     y     z
   <dbl> <ord>     <ord> <ord>   <dbl> <dbl> <int> <dbl> <dbl> <dbl>
 1  0.23 Ideal     E     SI2      61.5    55   326  3.95  3.98  2.43
 2  0.21 Premium   E     SI1      59.8    61   326  3.89  3.84  2.31
 3  0.23 Good      E     VS1      56.9    65   327  4.05  4.07  2.31
 4  0.29 Premium   I     VS2      62.4    58   334  4.2   4.23  2.63
 5  0.31 Good      J     SI2      63.3    58   335  4.34  4.35  2.75
 6  0.24 Very Good J     VVS2     62.8    57   336  3.94  3.96  2.48
 7  0.24 Very Good I     VVS1     62.3    57   336  3.95  3.98  2.47
 8  0.26 Very Good H     SI1      61.9    55   337  4.07  4.11  2.53
 9  0.22 Fair      E     VS2      65.1    61   337  3.87  3.78  2.49
10  0.23 Very Good H     VS1      59.4    61   338  4     4.05  2.39
# ... with 53,930 more rows
…
> vec2_fac <- as.factor(vec2)
> class(vec2_fac )
[1] "factor"
> #tidy means to collect data and make it usable for statistics in R
> x <- CO2
> glimpse(x)
Rows: 84
Columns: 5
$ Plant     <ord> Qn1, Qn1, Qn1, Qn1, Qn1, Qn1, Qn1, Qn2, Qn2, Qn2, Qn2, Qn2, Qn2~
$ Type      <fct> Quebec, Quebec, Quebec, Quebec, Quebec, Quebec, Quebec, Quebec,~
$ Treatment <fct> nonchilled, nonchilled, nonchilled, nonchilled, nonchilled, non~
$ conc      <dbl> 95, 175, 250, 350, 500, 675, 1000, 95, 175, 250, 350, 500, 675,~
$ uptake    <dbl> 16.0, 30.4, 34.8, 37.2, 35.3, 39.2, 39.7, 13.6, 27.3, 37.1, 41.~
> as_tibble(x)
# A tibble: 84 x 5
   Plant Type   Treatment   conc uptake
   <ord> <fct>  <fct>      <dbl>  <dbl>
 1 Qn1   Quebec nonchilled    95   16  
 2 Qn1   Quebec nonchilled   175   30.4
 3 Qn1   Quebec nonchilled   250   34.8
 4 Qn1   Quebec nonchilled   350   37.2
 5 Qn1   Quebec nonchilled   500   35.3
 6 Qn1   Quebec nonchilled   675   39.2
 7 Qn1   Quebec nonchilled  1000   39.7
 8 Qn2   Quebec nonchilled    95   13.6
 9 Qn2   Quebec nonchilled   175   27.3
10 Qn2   Quebec nonchilled   250   37.1
# ... with 74 more rows
…
73   Mc2 Mississippi    chilled  250   12.3
74   Mc2 Mississippi    chilled  350   13.0
75   Mc2 Mississippi    chilled  500   12.5
76   Mc2 Mississippi    chilled  675   13.7
77   Mc2 Mississippi    chilled 1000   14.4
78   Mc3 Mississippi    chilled   95   10.6
79   Mc3 Mississippi    chilled  175   18.0
80   Mc3 Mississippi    chilled  250   17.9
81   Mc3 Mississippi    chilled  350   17.9
82   Mc3 Mississippi    chilled  500   17.9
83   Mc3 Mississippi    chilled  675   18.9
84   Mc3 Mississippi    chilled 1000   19.9
> x1 <- chickwts
> as_tibble(x1)
# A tibble: 71 x 2
   weight feed     
    <dbl> <fct>    
 1    179 horsebean
 2    160 horsebean
 3    136 horsebean
 4    227 horsebean
 5    217 horsebean
 6    168 horsebean
 7    108 horsebean
 8    124 horsebean
 9    143 horsebean
10    140 horsebean
# ... with 61 more rows
> library (dslabs)
> x <- diamonds
> #add a column
> as_tibble(x)
# A tibble: 53,940 x 10
   carat cut       color clarity depth table price     x     y     z
   <dbl> <ord>     <ord> <ord>   <dbl> <dbl> <int> <dbl> <dbl> <dbl>
 1  0.23 Ideal     E     SI2      61.5    55   326  3.95  3.98  2.43
 2  0.21 Premium   E     SI1      59.8    61   326  3.89  3.84  2.31
 3  0.23 Good      E     VS1      56.9    65   327  4.05  4.07  2.31
 4  0.29 Premium   I     VS2      62.4    58   334  4.2   4.23  2.63
 5  0.31 Good      J     SI2      63.3    58   335  4.34  4.35  2.75
 6  0.24 Very Good J     VVS2     62.8    57   336  3.94  3.96  2.48
 7  0.24 Very Good I     VVS1     62.3    57   336  3.95  3.98  2.47
 8  0.26 Very Good H     SI1      61.9    55   337  4.07  4.11  2.53
 9  0.22 Fair      E     VS2      65.1    61   337  3.87  3.78  2.49
10  0.23 Very Good H     VS1      59.4    61   338  4     4.05  2.39
# ... with 53,930 more rows
> x <- mutate(x, a = x+y)
> as_tibble(x)
# A tibble: 53,940 x 11
   carat cut       color clarity depth table price     x     y     z     a
   <dbl> <ord>     <ord> <ord>   <dbl> <dbl> <int> <dbl> <dbl> <dbl> <dbl>
 1  0.23 Ideal     E     SI2      61.5    55   326  3.95  3.98  2.43  7.93
 2  0.21 Premium   E     SI1      59.8    61   326  3.89  3.84  2.31  7.73
 3  0.23 Good      E     VS1      56.9    65   327  4.05  4.07  2.31  8.12
 4  0.29 Premium   I     VS2      62.4    58   334  4.2   4.23  2.63  8.43
 5  0.31 Good      J     SI2      63.3    58   335  4.34  4.35  2.75  8.69
 6  0.24 Very Good J     VVS2     62.8    57   336  3.94  3.96  2.48  7.9 
 7  0.24 Very Good I     VVS1     62.3    57   336  3.95  3.98  2.47  7.93
 8  0.26 Very Good H     SI1      61.9    55   337  4.07  4.11  2.53  8.18
 9  0.22 Fair      E     VS2      65.1    61   337  3.87  3.78  2.49  7.65
10  0.23 Very Good H     VS1      59.4    61   338  4     4.05  2.39  8.05
# ... with 53,930 more rows
> x2<- mutate (x, sd=  sd(y+z))
> as_tibble(x2)
# A tibble: 53,940 x 12
   carat cut       color clarity depth table price     x     y     z     a    sd
   <dbl> <ord>     <ord> <ord>   <dbl> <dbl> <int> <dbl> <dbl> <dbl> <dbl> <dbl>
 1  0.23 Ideal     E     SI2      61.5    55   326  3.95  3.98  2.43  7.93  1.83
 2  0.21 Premium   E     SI1      59.8    61   326  3.89  3.84  2.31  7.73  1.83
 3  0.23 Good      E     VS1      56.9    65   327  4.05  4.07  2.31  8.12  1.83
 4  0.29 Premium   I     VS2      62.4    58   334  4.2   4.23  2.63  8.43  1.83
 5  0.31 Good      J     SI2      63.3    58   335  4.34  4.35  2.75  8.69  1.83
 6  0.24 Very Good J     VVS2     62.8    57   336  3.94  3.96  2.48  7.9   1.83
 7  0.24 Very Good I     VVS1     62.3    57   336  3.95  3.98  2.47  7.93  1.83
 8  0.26 Very Good H     SI1      61.9    55   337  4.07  4.11  2.53  8.18  1.83
 9  0.22 Fair      E     VS2      65.1    61   337  3.87  3.78  2.49  7.65  1.83
10  0.23 Very Good H     VS1      59.4    61   338  4     4.05  2.39  8.05  1.83
# ... with 53,930 more rows
> # #subsetting
> as_tibble(x)
# A tibble: 53,940 x 11
   carat cut       color clarity depth table price     x     y     z     a
   <dbl> <ord>     <ord> <ord>   <dbl> <dbl> <int> <dbl> <dbl> <dbl> <dbl>
 1  0.23 Ideal     E     SI2      61.5    55   326  3.95  3.98  2.43  7.93
 2  0.21 Premium   E     SI1      59.8    61   326  3.89  3.84  2.31  7.73
 3  0.23 Good      E     VS1      56.9    65   327  4.05  4.07  2.31  8.12
 4  0.29 Premium   I     VS2      62.4    58   334  4.2   4.23  2.63  8.43
 5  0.31 Good      J     SI2      63.3    58   335  4.34  4.35  2.75  8.69
 6  0.24 Very Good J     VVS2     62.8    57   336  3.94  3.96  2.48  7.9 
 7  0.24 Very Good I     VVS1     62.3    57   336  3.95  3.98  2.47  7.93
 8  0.26 Very Good H     SI1      61.9    55   337  4.07  4.11  2.53  8.18
 9  0.22 Fair      E     VS2      65.1    61   337  3.87  3.78  2.49  7.65
10  0.23 Very Good H     VS1      59.4    61   338  4     4.05  2.39  8.05
# ... with 53,930 more rows
> x_al <- filter(x, a == 7.93)
> as_tibble(x_al) 
# A tibble: 28 x 11
   carat cut       color clarity depth table price     x     y     z     a
   <dbl> <ord>     <ord> <ord>   <dbl> <dbl> <int> <dbl> <dbl> <dbl> <dbl>
 1  0.23 Ideal     E     SI2      61.5    55   326  3.95  3.98  2.43  7.93
 2  0.24 Very Good I     VVS1     62.3    57   336  3.95  3.98  2.47  7.93
 3  0.23 Very Good D     VS2      60.5    61   357  3.96  3.97  2.4   7.93
 4  0.23 Premium   F     VVS2     61.3    59   571  3.99  3.94  2.43  7.93
 5  0.23 Very Good E     VVS1     62.4    54   583  3.95  3.98  2.47  7.93
 6  0.23 Ideal     E     VS1      61.5    54   586  3.96  3.97  2.44  7.93
 7  0.23 Premium   I     VVS1     60.5    61   414  3.98  3.95  2.4   7.93
 8  0.24 Very Good F     VS1      62      56   417  3.94  3.99  2.46  7.93
 9  0.24 Very Good E     VS2      63.1    56   419  3.95  3.98  2.5   7.93
10  0.23 Premium   E     VVS1     60.8    56   640  3.99  3.94  2.41  7.93
# ... with 18 more rows
> X_a2 <- filter(x, cut=="Ideal")#subsetting a character variable
> as_tibble(X_a2)
# A tibble: 21,551 x 11
   carat cut   color clarity depth table price     x     y     z     a
   <dbl> <ord> <ord> <ord>   <dbl> <dbl> <int> <dbl> <dbl> <dbl> <dbl>
 1  0.23 Ideal E     SI2      61.5    55   326  3.95  3.98  2.43  7.93
 2  0.23 Ideal J     VS1      62.8    56   340  3.93  3.9   2.46  7.83
 3  0.31 Ideal J     SI2      62.2    54   344  4.35  4.37  2.71  8.72
 4  0.3  Ideal I     SI2      62      54   348  4.31  4.34  2.68  8.65
 5  0.33 Ideal I     SI2      61.8    55   403  4.49  4.51  2.78  9   
 6  0.33 Ideal I     SI2      61.2    56   403  4.49  4.5   2.75  8.99
 7  0.33 Ideal J     SI1      61.1    56   403  4.49  4.55  2.76  9.04
 8  0.23 Ideal G     VS1      61.9    54   404  3.93  3.95  2.44  7.88
 9  0.32 Ideal I     SI1      60.9    55   404  4.45  4.48  2.72  8.93
10  0.3  Ideal I     SI2      61      59   405  4.3   4.33  2.63  8.63
# ... with 21,541 more rows
> #subsetting using select function
> as_tibble(x)
# A tibble: 53,940 x 11
   carat cut       color clarity depth table price     x     y     z     a
   <dbl> <ord>     <ord> <ord>   <dbl> <dbl> <int> <dbl> <dbl> <dbl> <dbl>
 1  0.23 Ideal     E     SI2      61.5    55   326  3.95  3.98  2.43  7.93
 2  0.21 Premium   E     SI1      59.8    61   326  3.89  3.84  2.31  7.73
 3  0.23 Good      E     VS1      56.9    65   327  4.05  4.07  2.31  8.12
 4  0.29 Premium   I     VS2      62.4    58   334  4.2   4.23  2.63  8.43
 5  0.31 Good      J     SI2      63.3    58   335  4.34  4.35  2.75  8.69
 6  0.24 Very Good J     VVS2     62.8    57   336  3.94  3.96  2.48  7.9 
 7  0.24 Very Good I     VVS1     62.3    57   336  3.95  3.98  2.47  7.93
 8  0.26 Very Good H     SI1      61.9    55   337  4.07  4.11  2.53  8.18
 9  0.22 Fair      E     VS2      65.1    61   337  3.87  3.78  2.49  7.65
10  0.23 Very Good H     VS1      59.4    61   338  4     4.05  2.39  8.05
# ... with 53,930 more rows
> x1 <- select(x, cut, color, x)
> as_tibble(x1)
# A tibble: 53,940 x 3
   cut       color     x
   <ord>     <ord> <dbl>
 1 Ideal     E      3.95
 2 Premium   E      3.89
 3 Good      E      4.05
 4 Premium   I      4.2 
 5 Good      J      4.34
 6 Very Good J      3.94
 7 Very Good I      3.95
 8 Very Good H      4.07
 9 Fair      E      3.87
10 Very Good H      4   
# ... with 53,930 more rows
> #task for attendees
> x <- murders
> as_tibble(x)
# A tibble: 51 x 5
   state                abb   region    population total
   <chr>                <chr> <fct>          <dbl> <dbl>
 1 Alabama              AL    South        4779736   135
 2 Alaska               AK    West          710231    19
 3 Arizona              AZ    West         6392017   232
 4 Arkansas             AR    South        2915918    93
 5 California           CA    West        37253956  1257
 6 Colorado             CO    West         5029196    65
 7 Connecticut          CT    Northeast    3574097    97
 8 Delaware             DE    South         897934    38
 9 District of Columbia DC    South         601723    99
10 Florida              FL    South       19687653   669
# ... with 41 more rows
…
x1 <- mutate (mtcars, gpm = 1/ mpg)
x2 <- transmute (mtcars, gpm = 1 / mpg)
x1 <- rename (x1, R_with_Aammar = gpm)
```

output

```
> library(tidyverse)
> library(tidyr)
> #Summarise Function
> x <- mtcars
> view(x)
> as_tibble(x)
# A tibble: 32 x 11
     mpg   cyl  disp    hp  drat    wt  qsec    vs    am  gear  carb
   <dbl> <dbl> <dbl> <dbl> <dbl> <dbl> <dbl> <dbl> <dbl> <dbl> <dbl>
 1  21       6  160    110  3.9   2.62  16.5     0     1     4     4
 2  21       6  160    110  3.9   2.88  17.0     0     1     4     4
 3  22.8     4  108     93  3.85  2.32  18.6     1     1     4     1
 4  21.4     6  258    110  3.08  3.22  19.4     1     0     3     1
 5  18.7     8  360    175  3.15  3.44  17.0     0     0     3     2
 6  18.1     6  225    105  2.76  3.46  20.2     1     0     3     1
 7  14.3     8  360    245  3.21  3.57  15.8     0     0     3     4
 8  24.4     4  147.    62  3.69  3.19  20       1     0     4     2
 9  22.8     4  141.    95  3.92  3.15  22.9     1     0     4     2
10  19.2     6  168.   123  3.92  3.44  18.3     1     0     4     4
# ... with 22 more rows
…
1 146.6875    32
> #group by
> mtcars %>%
+   group_by (cyl) %>%
+   summarise(avg = mean (mpg))
# A tibble: 3 x 2
    cyl   avg
  <dbl> <dbl>
1     4  26.7
2     6  19.7
3     8  15.1
> starwars %>%
+   rowwise() %>%
+   mutate(film_count = length(films))
# A tibble: 87 x 15
# Rowwise: 
   name               height  mass hair_color    skin_color  eye_color birth_year sex    gender    homeworld species films     vehicles  starships film_count
   <chr>               <int> <dbl> <chr>         <chr>       <chr>          <dbl> <chr>  <chr>     <chr>     <chr>   <list>    <list>    <list>         <int>
 1 Luke Skywalker        172    77 blond         fair        blue            19   male   masculine Tatooine  Human   <chr [5]> <chr [2]> <chr [2]>          5
 2 C-3PO                 167    75 NA            gold        yellow         112   none   masculine Tatooine  Droid   <chr [6]> <chr [0]> <chr [0]>          6
 3 R2-D2                  96    32 NA            white, blue red             33   none   masculine Naboo     Droid   <chr [7]> <chr [0]> <chr [0]>          7
 4 Darth Vader           202   136 none          white       yellow          41.9 male   masculine Tatooine  Human   <chr [4]> <chr [0]> <chr [1]>          4
 5 Leia Organa           150    49 brown         light       brown           19   female feminine  Alderaan  Human   <chr [5]> <chr [1]> <chr [0]>          5
 6 Owen Lars             178   120 brown, grey   light       blue            52   male   masculine Tatooine  Human   <chr [3]> <chr [0]> <chr [0]>          3
 7 Beru Whitesun lars    165    75 brown         light       blue            47   female feminine  Tatooine  Human   <chr [3]> <chr [0]> <chr [0]>          3
 8 R5-D4                  97    32 NA            white, red  red             NA   none   masculine Tatooine  Droid   <chr [1]> <chr [0]> <chr [0]>          1
 9 Biggs Darklighter     183    84 black         light       brown           24   male   masculine Tatooine  Human   <chr [1]> <chr [0]> <chr [1]>          1
10 Obi-Wan Kenobi        182    77 auburn, white fair        blue-gray       57   male   masculine Stewjon   Human   <chr [6]> <chr [1]> <chr [5]>          6
# ... with 77 more rows
…
> cars <- add_row (cars, speed = 20)
> cars[is.na (cars)] = 0 #to convert na va lues into zero
> #manipulating variables
> x <- pull (mtcars, wt)
> x1 <- select (mtcars, mpg, cyl)
> x1 <- select (mtcars, mpg:drat)
> x1 <- relocate (mtcars, mpg, cyl, .after = last_col())
> summarise (mtcars, mean(mpg)) #for only one variable
  mean(mpg)
1  20.09062
> x1 <- summarise (mtcars, across (everything(), mean)) #across variables
> mtcars %>%
+   rowwise() %>%
+   mutate(zzz = (mpg+cyl+disp)/3) #we have to recheck the across functions?
# A tibble: 32 x 12
# Rowwise: 
     mpg   cyl  disp    hp  drat    wt  qsec    vs    am  gear  carb   zzz
   <dbl> <dbl> <dbl> <dbl> <dbl> <dbl> <dbl> <dbl> <dbl> <dbl> <dbl> <dbl>
 1  21       6  160    110  3.9   2.62  16.5     0     1     4     4  62.3
 2  21       6  160    110  3.9   2.88  17.0     0     1     4     4  62.3
 3  22.8     4  108     93  3.85  2.32  18.6     1     1     4     1  44.9
 4  21.4     6  258    110  3.08  3.22  19.4     1     0     3     1  95.1
 5  18.7     8  360    175  3.15  3.44  17.0     0     0     3     2 129. 
 6  18.1     6  225    105  2.76  3.46  20.2     1     0     3     1  83.0
 7  14.3     8  360    245  3.21  3.57  15.8     0     0     3     4 127. 
 8  24.4     4  147.    62  3.69  3.19  20       1     0     4     2  58.4
 9  22.8     4  141.    95  3.92  3.15  22.9     1     0     4     2  55.9
10  19.2     6  168.   123  3.92  3.44  18.3     1     0     4     4  64.3
# ... with 22 more rows
…
